[
{
"location_code":"PSI",
"system_code": "P01", 
"description":"system hardware",
"component":[
	{
	"description":"TPM_v1.2",
	"qty":1,
	"mb":null,
	"is_con":null,
	"is_sn":null,
	"item_image":null,
	"ci_number":null,
	"part_number":null,
	"part_number_barcode":null,
	"part_number":null,
	"barcode_image":null,
	"serial_number":null,
	"serial_number_barcode":null,
	"barcode_image":null
	},
	{
	"description":"TPM_v1.6",
	"qty":1,
	"mb":null,
	"is_con":null,
	"is_sn":null,
	"item_image":null,
	"ci_number":null,
	"part_number":null,
	"part_number_barcode":null,
	"part_number":null,
	"barcode_image":null,
	"serial_number":null,
	"serial_number_barcode":null,
	"barcode_image":null
	}	
	]	
}
]
